  {
    "_id": {
      "$oid": "6291054fd7a9d9c91e313099"
    },
    "measure_code": "CLA42",
    "fields": {
      "measure_id": "CLA42-a0n4u00000D2sIt",
      "pre_committed_above_ex_kw_savings": 13,
      "pre_committed_above_code_kw_savings": 0.18,
      "indirect_kw_savings": 2.09,
      "pre_committed_above_ex_kwh_savings": 99312.4,
      "pre_committed_above_code_kwh_savings": 1461.8,
      "indirect_kwh_savings": 8938.2,
      "pre_committed_above_ex_therm_savings": 0,
      "pre_committed_above_code_therm_savings": -7.5,
      "indirect_therm_savings": -504.5,
      "total_vendor_rebate_amount": 13867.49,
      "full_measure_cost": 176620.34,
      "incremental_measure_cost": 82930.32,
      "material_cost": 121045.76,
      "installation_labor_cost": 55574.58,
      "cmpa_project_description": "A lighting project at a large office replacing (855) LED linear strip fixtures, (9) LED pole-mounted area lights",
      "measure_application_type": "Accelerated Replacement",
      "requested_quantity_of_equipment": 855,
      "measure_comments": ""
    },
    "time_created": {
      "$date": "2022-05-27T17:07:27.147Z"
    },
    "time_last_modified": {
      "$date": "2022-05-27T17:07:27.147Z"
    }
  }
  {
    "_id": {
      "$oid": "6291054fd7a9d9c91e31309e"
    },
    "measure_code": "CLB52",
    "fields": {
      "measure_id": "CLB52-PIA-C-190",
      "pre_committed_above_ex_kw_savings": 0,
      "pre_committed_above_code_kw_savings": 0,
      "indirect_kw_savings": 0,
      "pre_committed_above_ex_kwh_savings": 17556,
      "pre_committed_above_code_kwh_savings": 279.2,
      "indirect_kwh_savings": 0,
      "pre_committed_above_ex_therm_savings": 0,
      "pre_committed_above_code_therm_savings": 0,
      "indirect_therm_savings": 0,
      "total_vendor_rebate_amount": 2106.72,
      "full_measure_cost": 11816.91,
      "incremental_measure_cost": 3765.44,
      "material_cost": 6581.46,
      "installation_labor_cost": 6567.61,
      "cmpa_project_description": "A lighting project at an unconditioned storage facility replacing (499) LED linear strip fixtures, (14) LED wall-mounted fixtures, (36) LED highbay fixtures",
      "measure_application_type": "Accelerated Replacement",
      "requested_quantity_of_equipment": 14,
      "measure_comments": ""
    },
    "time_created": {
      "$date": "2022-05-27T17:07:27.152Z"
    },
    "time_last_modified": {
      "$date": "2022-05-27T17:07:27.152Z"
    }
  }
  {
    "_id": {
      "$oid": "6291054fd7a9d9c91e31309a"
    },
    "measure_code": "CLB51",
    "fields": {
      "measure_id": "CLB51-a0n4u00000D2sIt",
      "pre_committed_above_ex_kw_savings": 0,
      "pre_committed_above_code_kw_savings": 0,
      "indirect_kw_savings": 0,
      "pre_committed_above_ex_kwh_savings": 7043.8,
      "pre_committed_above_code_kwh_savings": 1294.5,
      "indirect_kwh_savings": 0,
      "pre_committed_above_ex_therm_savings": 0,
      "pre_committed_above_code_therm_savings": 0,
      "indirect_therm_savings": 0,
      "total_vendor_rebate_amount": 845.26,
      "full_measure_cost": 5806.1,
      "incremental_measure_cost": 2257.09,
      "material_cost": 3781.14,
      "installation_labor_cost": 2024.96,
      "cmpa_project_description": "A lighting project at a large office replacing (855) LED linear strip fixtures, (9) LED pole-mounted area lights",
      "measure_application_type": "Accelerated Replacement",
      "requested_quantity_of_equipment": 9,
      "measure_comments": ""
    },
    "time_created": {
      "$date": "2022-05-27T17:07:27.148Z"
    },
    "time_last_modified": {
      "$date": "2022-05-27T17:07:27.148Z"
    }
  }
  {
    "_id": {
      "$oid": "6291054fd7a9d9c91e31309f"
    },
    "measure_code": "CLA22",
    "fields": {
      "measure_id": "CLA22-PIA-C-190",
      "pre_committed_above_ex_kw_savings": 3.51,
      "pre_committed_above_code_kw_savings": 0.1,
      "indirect_kw_savings": 0.56,
      "pre_committed_above_ex_kwh_savings": 25462.4,
      "pre_committed_above_code_kwh_savings": 446.6,
      "indirect_kwh_savings": 0,
      "pre_committed_above_ex_therm_savings": 0,
      "pre_committed_above_code_therm_savings": -4.9,
      "indirect_therm_savings": -278.5,
      "total_vendor_rebate_amount": 3581.99,
      "full_measure_cost": 23023.52,
      "incremental_measure_cost": 11880,
      "material_cost": 15430.3,
      "installation_labor_cost": 9525.32,
      "cmpa_project_description": "A lighting project at an unconditioned storage facility replacing (499) LED linear strip fixtures, (14) LED wall-mounted fixtures, (36) LED highbay fixtures",
      "measure_application_type": "Accelerated Replacement",
      "requested_quantity_of_equipment": 36,
      "measure_comments": ""
    },
    "time_created": {
      "$date": "2022-05-27T17:07:27.152Z"
    },
    "time_last_modified": {
      "$date": "2022-05-27T17:07:27.152Z"
    }
  }
  {
    "_id": {
      "$oid": "6291054fd7a9d9c91e31309d"
    },
    "measure_code": "CLA42",
    "fields": {
      "measure_id": "CLA42-PIA-C-190",
      "pre_committed_above_ex_kw_savings": 7.03,
      "pre_committed_above_code_kw_savings": 0.4,
      "indirect_kw_savings": 1.19,
      "pre_committed_above_ex_kwh_savings": 52799.8,
      "pre_committed_above_code_kwh_savings": 2720,
      "indirect_kwh_savings": 325.2,
      "pre_committed_above_ex_therm_savings": 0,
      "pre_committed_above_code_therm_savings": -28.1,
      "indirect_therm_savings": -545.7,
      "total_vendor_rebate_amount": 7390.48,
      "full_measure_cost": 79607.13,
      "incremental_measure_cost": 40394.05,
      "material_cost": 63861.52,
      "installation_labor_cost": 19752.08,
      "cmpa_project_description": "A lighting project at an unconditioned storage facility replacing (499) LED linear strip fixtures, (14) LED wall-mounted fixtures, (36) LED highbay fixtures",
      "measure_application_type": "Accelerated Replacement",
      "requested_quantity_of_equipment": 499,
      "measure_comments": ""
    },
    "time_created": {
      "$date": "2022-05-27T17:07:27.151Z"
    },
    "time_last_modified": {
      "$date": "2022-05-27T17:07:27.151Z"
    }
  }
  {
    "_id": {
      "$oid": "6291054fd7a9d9c91e3130a5"
    },
    "measure_code": "CLA42",
    "fields": {
      "measure_id": "CLA42-PIA-C-197",
      "pre_committed_above_ex_kw_savings": 15.89,
      "pre_committed_above_code_kw_savings": 15.9,
      "indirect_kw_savings": 3.18,
      "pre_committed_above_ex_kwh_savings": 103672.7,
      "pre_committed_above_code_kwh_savings": 103672.7,
      "indirect_kwh_savings": 2073.9,
      "pre_committed_above_ex_therm_savings": 0,
      "pre_committed_above_code_therm_savings": -1275.3,
      "indirect_therm_savings": -1275.3,
      "total_vendor_rebate_amount": 14824.22,
      "full_measure_cost": 70846.86,
      "incremental_measure_cost": 48882.3,
      "material_cost": 53122.21,
      "installation_labor_cost": 17724.65,
      "cmpa_project_description": "A lighting project at a grocery store replacing (4) LED canopy fixtures, (278) LED linear strip fixtures, (10) LED wall-mounted fixtures, (4) LED flood/bollard fixtures. ",
      "measure_application_type": "Accelerated Replacement",
      "requested_quantity_of_equipment": 278,
      "measure_comments": ""
    },
    "time_created": {
      "$date": "2022-05-27T17:07:27.169Z"
    },
    "time_last_modified": {
      "$date": "2022-05-27T17:07:27.169Z"
    }
  }
  {
    "_id": {
      "$oid": "6291054fd7a9d9c91e3130a4"
    },
    "measure_code": "CLB81",
    "fields": {
      "measure_id": "CLB81-PIA-C-197",
      "pre_committed_above_ex_kw_savings": 0,
      "pre_committed_above_code_kw_savings": 0,
      "indirect_kw_savings": 0,
      "pre_committed_above_ex_kwh_savings": 1654.9,
      "pre_committed_above_code_kwh_savings": 0,
      "indirect_kwh_savings": 0,
      "pre_committed_above_ex_therm_savings": 0,
      "pre_committed_above_code_therm_savings": 0,
      "indirect_therm_savings": 0,
      "total_vendor_rebate_amount": 198.59,
      "full_measure_cost": 765.51,
      "incremental_measure_cost": 176.9,
      "material_cost": 482.58,
      "installation_labor_cost": 282.93,
      "cmpa_project_description": "A lighting project at a grocery store replacing (4) LED canopy fixtures, (278) LED linear strip fixtures, (10) LED wall-mounted fixtures, (4) LED flood/bollard fixtures. ",
      "measure_application_type": "Accelerated Replacement",
      "requested_quantity_of_equipment": 4,
      "measure_comments": ""
    },
    "time_created": {
      "$date": "2022-05-27T17:07:27.169Z"
    },
    "time_last_modified": {
      "$date": "2022-05-27T17:07:27.169Z"
    }
  }
  {
    "_id": {
      "$oid": "6291054fd7a9d9c91e3130a7"
    },
    "measure_code": "CLB50",
    "fields": {
      "measure_id": "CLB50-PIA-C-197",
      "pre_committed_above_ex_kw_savings": 0,
      "pre_committed_above_code_kw_savings": 0,
      "indirect_kw_savings": 0,
      "pre_committed_above_ex_kwh_savings": 2656.8,
      "pre_committed_above_code_kwh_savings": 2656.8,
      "indirect_kwh_savings": 0,
      "pre_committed_above_ex_therm_savings": 0,
      "pre_committed_above_code_therm_savings": 0,
      "indirect_therm_savings": 0,
      "total_vendor_rebate_amount": 318.82,
      "full_measure_cost": 2514.38,
      "incremental_measure_cost": 2014.26,
      "material_cost": 2060.15,
      "installation_labor_cost": 454.23,
      "cmpa_project_description": "A lighting project at a grocery store replacing (4) LED canopy fixtures, (278) LED linear strip fixtures, (10) LED wall-mounted fixtures, (4) LED flood/bollard fixtures. ",
      "measure_application_type": "Accelerated Replacement",
      "requested_quantity_of_equipment": 4,
      "measure_comments": ""
    },
    "time_created": {
      "$date": "2022-05-27T17:07:27.170Z"
    },
    "time_last_modified": {
      "$date": "2022-05-27T17:07:27.170Z"
    }
  }
  {
    "_id": {
      "$oid": "6291054fd7a9d9c91e3130a6"
    },
    "measure_code": "CLB52",
    "fields": {
      "measure_id": "CLB52-PIA-C-197",
      "pre_committed_above_ex_kw_savings": 0,
      "pre_committed_above_code_kw_savings": 0,
      "indirect_kw_savings": 0,
      "pre_committed_above_ex_kwh_savings": 10136.4,
      "pre_committed_above_code_kwh_savings": 39.1,
      "indirect_kwh_savings": 0,
      "pre_committed_above_ex_therm_savings": 0,
      "pre_committed_above_code_therm_savings": 0,
      "indirect_therm_savings": 0,
      "total_vendor_rebate_amount": 1216.37,
      "full_measure_cost": 3746.25,
      "incremental_measure_cost": 1357.87,
      "material_cost": 2013.26,
      "installation_labor_cost": 1732.99,
      "cmpa_project_description": "A lighting project at a grocery store replacing (4) LED canopy fixtures, (278) LED linear strip fixtures, (10) LED wall-mounted fixtures, (4) LED flood/bollard fixtures. ",
      "measure_application_type": "Accelerated Replacement",
      "requested_quantity_of_equipment": 10,
      "measure_comments": ""
    },
    "time_created": {
      "$date": "2022-05-27T17:07:27.169Z"
    },
    "time_last_modified": {
      "$date": "2022-05-27T17:07:27.169Z"
    }
  }
  {
    "_id": {
      "$oid": "6291054fd7a9d9c91e3130aa"
    },
    "measure_code": "HV054",
    "fields": {
      "measure_id": "HV054-PIA-D-841",
      "pre_committed_above_ex_kw_savings": 12.31,
      "pre_committed_above_code_kw_savings": 0,
      "indirect_kw_savings": 0,
      "pre_committed_above_ex_kwh_savings": 38492.6,
      "pre_committed_above_code_kwh_savings": 0,
      "indirect_kwh_savings": 0,
      "pre_committed_above_ex_therm_savings": 1788.7,
      "pre_committed_above_code_therm_savings": 0,
      "indirect_therm_savings": 0,
      "total_vendor_rebate_amount": 5200,
      "full_measure_cost": 10200,
      "incremental_measure_cost": 0,
      "material_cost": 4800,
      "installation_labor_cost": 4800,
      "cmpa_project_description": "",
      "measure_application_type": "",
      "requested_quantity_of_equipment": 65,
      "measure_comments": ""
    },
    "time_created": {
      "$date": "2022-05-27T17:07:27.185Z"
    },
    "time_last_modified": {
      "$date": "2022-05-27T17:07:27.185Z"
    }
  }
  {
    "_id": {
      "$oid": "6291054fd7a9d9c91e3130ad"
    },
    "measure_code": "CLB52",
    "fields": {
      "measure_id": "CLB52-PIA-C-198",
      "pre_committed_above_ex_kw_savings": 0,
      "pre_committed_above_code_kw_savings": 0,
      "indirect_kw_savings": 0,
      "pre_committed_above_ex_kwh_savings": 5460.7,
      "pre_committed_above_code_kwh_savings": 143.4,
      "indirect_kwh_savings": 0,
      "pre_committed_above_ex_therm_savings": 0,
      "pre_committed_above_code_therm_savings": 0,
      "indirect_therm_savings": 0,
      "total_vendor_rebate_amount": 655.28,
      "full_measure_cost": 4373.2,
      "incremental_measure_cost": 1990.05,
      "material_cost": 2077.96,
      "installation_labor_cost": 2011.9,
      "cmpa_project_description": "A lighting project at a grocery store replacing (9) LED canopy fixtures, (17) LED wall-mounted fixtures, (467) LED linear strip fixtures",
      "measure_application_type": "Accelerated Replacement",
      "requested_quantity_of_equipment": 17,
      "measure_comments": ""
    },
    "time_created": {
      "$date": "2022-05-27T17:07:27.186Z"
    },
    "time_last_modified": {
      "$date": "2022-05-27T17:07:27.186Z"
    }
  }
  {
    "_id": {
      "$oid": "6291054fd7a9d9c91e3130ac"
    },
    "measure_code": "CLB81",
    "fields": {
      "measure_id": "CLB81-PIA-C-198",
      "pre_committed_above_ex_kw_savings": 0,
      "pre_committed_above_code_kw_savings": 0,
      "indirect_kw_savings": 0,
      "pre_committed_above_ex_kwh_savings": 4252.5,
      "pre_committed_above_code_kwh_savings": 0,
      "indirect_kwh_savings": 0,
      "pre_committed_above_ex_therm_savings": 0,
      "pre_committed_above_code_therm_savings": 0,
      "indirect_therm_savings": 0,
      "total_vendor_rebate_amount": 510.3,
      "full_measure_cost": 2652.56,
      "incremental_measure_cost": 398.02,
      "material_cost": 865.15,
      "installation_labor_cost": 1566.76,
      "cmpa_project_description": "A lighting project at a grocery store replacing (9) LED canopy fixtures, (17) LED wall-mounted fixtures, (467) LED linear strip fixtures",
      "measure_application_type": "Accelerated Replacement",
      "requested_quantity_of_equipment": 9,
      "measure_comments": ""
    },
    "time_created": {
      "$date": "2022-05-27T17:07:27.186Z"
    },
    "time_last_modified": {
      "$date": "2022-05-27T17:07:27.186Z"
    }
  }
  {
    "_id": {
      "$oid": "6291054fd7a9d9c91e3130ae"
    },
    "measure_code": "CLA42",
    "fields": {
      "measure_id": "CLA42-PIA-C-198",
      "pre_committed_above_ex_kw_savings": 11.88,
      "pre_committed_above_code_kw_savings": 11.9,
      "indirect_kw_savings": 2.37,
      "pre_committed_above_ex_kwh_savings": 77452,
      "pre_committed_above_code_kwh_savings": 77452,
      "indirect_kwh_savings": 1549.2,
      "pre_committed_above_ex_therm_savings": 0,
      "pre_committed_above_code_therm_savings": -952.8,
      "indirect_therm_savings": -952.8,
      "total_vendor_rebate_amount": 11076.24,
      "full_measure_cost": 93191.5,
      "incremental_measure_cost": 57405.39,
      "material_cost": 60636.9,
      "installation_labor_cost": 28535.79,
      "cmpa_project_description": "A lighting project at a grocery store replacing (9) LED canopy fixtures, (17) LED wall-mounted fixtures, (467) LED linear strip fixtures",
      "measure_application_type": "Accelerated Replacement",
      "requested_quantity_of_equipment": 467,
      "measure_comments": ""
    },
    "time_created": {
      "$date": "2022-05-27T17:07:27.194Z"
    },
    "time_last_modified": {
      "$date": "2022-05-27T17:07:27.194Z"
    }
  }
  {
    "_id": {
      "$oid": "6291054fd7a9d9c91e3130b1"
    },
    "measure_code": "HV054",
    "fields": {
      "measure_id": "HV054-PIA-D-845",
      "pre_committed_above_ex_kw_savings": 7.37,
      "pre_committed_above_code_kw_savings": 0,
      "indirect_kw_savings": 0,
      "pre_committed_above_ex_kwh_savings": 32268.5,
      "pre_committed_above_code_kwh_savings": 0,
      "indirect_kwh_savings": 0,
      "pre_committed_above_ex_therm_savings": 1448.1,
      "pre_committed_above_code_therm_savings": 0,
      "indirect_therm_savings": 0,
      "total_vendor_rebate_amount": 6560,
      "full_measure_cost": 10200,
      "incremental_measure_cost": 0,
      "material_cost": 4800,
      "installation_labor_cost": 4800,
      "cmpa_project_description": "",
      "measure_application_type": "",
      "requested_quantity_of_equipment": 56,
      "measure_comments": ""
    },
    "time_created": {
      "$date": "2022-05-27T17:07:27.263Z"
    },
    "time_last_modified": {
      "$date": "2022-05-27T17:07:27.263Z"
    }
  }
  {
    "_id": {
      "$oid": "6291054fd7a9d9c91e3130bd"
    },
    "measure_code": "HV054",
    "fields": {
      "measure_id": "HV054-PIA-D-828",
      "pre_committed_above_ex_kw_savings": 11.63,
      "pre_committed_above_code_kw_savings": 0,
      "indirect_kw_savings": 0,
      "pre_committed_above_ex_kwh_savings": 33927.3,
      "pre_committed_above_code_kwh_savings": 0,
      "indirect_kwh_savings": 0,
      "pre_committed_above_ex_therm_savings": 1047,
      "pre_committed_above_code_therm_savings": 0,
      "indirect_therm_savings": 0,
      "total_vendor_rebate_amount": 4800,
      "full_measure_cost": 10200,
      "incremental_measure_cost": 0,
      "material_cost": 4800,
      "installation_labor_cost": 4800,
      "cmpa_project_description": "",
      "measure_application_type": "",
      "requested_quantity_of_equipment": 60,
      "measure_comments": ""
    },
    "time_created": {
      "$date": "2022-05-27T17:07:27.347Z"
    },
    "time_last_modified": {
      "$date": "2022-05-27T17:07:27.347Z"
    }
  }
  {
    "_id": {
      "$oid": "6291054fd7a9d9c91e3130c1"
    },
    "measure_code": "HV054",
    "fields": {
      "measure_id": "HV054-PIA-D-829",
      "pre_committed_above_ex_kw_savings": 5.81,
      "pre_committed_above_code_kw_savings": 0,
      "indirect_kw_savings": 0,
      "pre_committed_above_ex_kwh_savings": 16963.7,
      "pre_committed_above_code_kwh_savings": 0,
      "indirect_kwh_savings": 0,
      "pre_committed_above_ex_therm_savings": 523.5,
      "pre_committed_above_code_therm_savings": 0,
      "indirect_therm_savings": 0,
      "total_vendor_rebate_amount": 1600,
      "full_measure_cost": 5100,
      "incremental_measure_cost": 0,
      "material_cost": 2400,
      "installation_labor_cost": 2400,
      "cmpa_project_description": "",
      "measure_application_type": "",
      "requested_quantity_of_equipment": 20,
      "measure_comments": ""
    },
    "time_created": {
      "$date": "2022-05-27T17:07:27.400Z"
    },
    "time_last_modified": {
      "$date": "2022-05-27T17:07:27.400Z"
    }
  }
  {
    "_id": {
      "$oid": "6291054fd7a9d9c91e3130c2"
    },
    "measure_code": "HV054",
    "fields": {
      "measure_id": "HV054-PIA-D-832",
      "pre_committed_above_ex_kw_savings": 17.71,
      "pre_committed_above_code_kw_savings": 0,
      "indirect_kw_savings": 0,
      "pre_committed_above_ex_kwh_savings": 55307,
      "pre_committed_above_code_kwh_savings": 0,
      "indirect_kwh_savings": 0,
      "pre_committed_above_ex_therm_savings": 1311.3,
      "pre_committed_above_code_therm_savings": 0,
      "indirect_therm_savings": 0,
      "total_vendor_rebate_amount": 7040,
      "full_measure_cost": 9600,
      "incremental_measure_cost": 0,
      "material_cost": 4800,
      "installation_labor_cost": 4800,
      "cmpa_project_description": "",
      "measure_application_type": "",
      "requested_quantity_of_equipment": 88,
      "measure_comments": ""
    },
    "time_created": {
      "$date": "2022-05-27T17:07:27.401Z"
    },
    "time_last_modified": {
      "$date": "2022-05-27T17:07:27.401Z"
    }
  }
  {
    "_id": {
      "$oid": "6291054fd7a9d9c91e3130c8"
    },
    "measure_code": "HV054",
    "fields": {
      "measure_id": "HV054-PIA-D-835",
      "pre_committed_above_ex_kw_savings": 8.65,
      "pre_committed_above_code_kw_savings": 0,
      "indirect_kw_savings": 0,
      "pre_committed_above_ex_kwh_savings": 26533.3,
      "pre_committed_above_code_kwh_savings": 0,
      "indirect_kwh_savings": 0,
      "pre_committed_above_ex_therm_savings": 845.3,
      "pre_committed_above_code_therm_savings": 0,
      "indirect_therm_savings": 0,
      "total_vendor_rebate_amount": 2800,
      "full_measure_cost": 7650,
      "incremental_measure_cost": 0,
      "material_cost": 3600,
      "installation_labor_cost": 3600,
      "cmpa_project_description": "",
      "measure_application_type": "",
      "requested_quantity_of_equipment": 35,
      "measure_comments": ""
    },
    "time_created": {
      "$date": "2022-05-27T17:07:27.457Z"
    },
    "time_last_modified": {
      "$date": "2022-05-27T17:07:27.457Z"
    }
  }
  {
    "_id": {
      "$oid": "6291054fd7a9d9c91e3130cb"
    },
    "measure_code": "HV054",
    "fields": {
      "measure_id": "HV054-PIA-D-844",
      "pre_committed_above_ex_kw_savings": 20.63,
      "pre_committed_above_code_kw_savings": 0,
      "indirect_kw_savings": 0,
      "pre_committed_above_ex_kwh_savings": 64420.1,
      "pre_committed_above_code_kwh_savings": 0,
      "indirect_kwh_savings": 0,
      "pre_committed_above_ex_therm_savings": 1527.4,
      "pre_committed_above_code_therm_savings": 0,
      "indirect_therm_savings": 0,
      "total_vendor_rebate_amount": 8200,
      "full_measure_cost": 17850,
      "incremental_measure_cost": 0,
      "material_cost": 8400,
      "installation_labor_cost": 8400,
      "cmpa_project_description": "",
      "measure_application_type": "",
      "requested_quantity_of_equipment": 103,
      "measure_comments": ""
    },
    "time_created": {
      "$date": "2022-05-27T17:07:27.485Z"
    },
    "time_last_modified": {
      "$date": "2022-05-27T17:07:27.485Z"
    }
  }
  {
    "_id": {
      "$oid": "6291054fd7a9d9c91e3130d2"
    },
    "measure_code": "HV054",
    "fields": {
      "measure_id": "HV054-PIA-D-827",
      "pre_committed_above_ex_kw_savings": 17.93,
      "pre_committed_above_code_kw_savings": 0,
      "indirect_kw_savings": 0,
      "pre_committed_above_ex_kwh_savings": 52304.6,
      "pre_committed_above_code_kwh_savings": 0,
      "indirect_kwh_savings": 0,
      "pre_committed_above_ex_therm_savings": 1614.1,
      "pre_committed_above_code_therm_savings": 0,
      "indirect_therm_savings": 0,
      "total_vendor_rebate_amount": 5800,
      "full_measure_cost": 17850,
      "incremental_measure_cost": 0,
      "material_cost": 8400,
      "installation_labor_cost": 8400,
      "cmpa_project_description": "",
      "measure_application_type": "",
      "requested_quantity_of_equipment": 73,
      "measure_comments": ""
    },
    "time_created": {
      "$date": "2022-05-27T17:07:27.635Z"
    },
    "time_last_modified": {
      "$date": "2022-05-27T17:07:27.635Z"
    }
  }
  {
    "_id": {
      "$oid": "6291054fd7a9d9c91e3130d6"
    },
    "measure_code": "HV054",
    "fields": {
      "measure_id": "HV054-PIA-D-846",
      "pre_committed_above_ex_kw_savings": 14.77,
      "pre_committed_above_code_kw_savings": 0,
      "indirect_kw_savings": 0,
      "pre_committed_above_ex_kwh_savings": 45327.7,
      "pre_committed_above_code_kwh_savings": 0,
      "indirect_kwh_savings": 0,
      "pre_committed_above_ex_therm_savings": 1444,
      "pre_committed_above_code_therm_savings": 0,
      "indirect_therm_savings": 0,
      "total_vendor_rebate_amount": 2960,
      "full_measure_cost": 15300,
      "incremental_measure_cost": 0,
      "material_cost": 7200,
      "installation_labor_cost": 7200,
      "cmpa_project_description": "",
      "measure_application_type": "",
      "requested_quantity_of_equipment": 37,
      "measure_comments": ""
    },
    "time_created": {
      "$date": "2022-05-27T17:07:27.665Z"
    },
    "time_last_modified": {
      "$date": "2022-05-27T17:07:27.665Z"
    }
  }
  {
    "_id": {
      "$oid": "6291054fd7a9d9c91e3130da"
    },
    "measure_code": "HV054",
    "fields": {
      "measure_id": "HV054-PIA-D-888",
      "pre_committed_above_ex_kw_savings": 4.62,
      "pre_committed_above_code_kw_savings": 0,
      "indirect_kw_savings": 0,
      "pre_committed_above_ex_kwh_savings": 14434.7,
      "pre_committed_above_code_kwh_savings": 0,
      "indirect_kwh_savings": 0,
      "pre_committed_above_ex_therm_savings": 670.8,
      "pre_committed_above_code_therm_savings": 0,
      "indirect_therm_savings": 0,
      "total_vendor_rebate_amount": 2400,
      "full_measure_cost": 5100,
      "incremental_measure_cost": 0,
      "material_cost": 2400,
      "installation_labor_cost": 2400,
      "cmpa_project_description": "",
      "measure_application_type": "",
      "requested_quantity_of_equipment": 30,
      "measure_comments": ""
    },
    "time_created": {
      "$date": "2022-05-27T17:07:27.690Z"
    },
    "time_last_modified": {
      "$date": "2022-05-27T17:07:27.690Z"
    }
  }
  {
    "_id": {
      "$oid": "6297ece37ebb829d22af54a0"
    },
    "measure_code": "asdfsdf",
    "fields": {
      "measure_id": "asdf",
      "pre_committed_above_ex_kw_savings": 3,
      "pre_committed_above_code_kw_savings": 0,
      "indirect_kw_savings": 0,
      "pre_committed_above_ex_kwh_savings": 0,
      "pre_committed_above_code_kwh_savings": 0,
      "indirect_kwh_savings": 0,
      "pre_committed_above_ex_therm_savings": 0,
      "pre_committed_above_code_therm_savings": 0,
      "indirect_therm_savings": 0,
      "total_vendor_rebate_amount": 0,
      "full_measure_cost": 0,
      "incremental_measure_cost": 0,
      "material_cost": 0,
      "installation_labor_cost": 0,
      "cmpa_project_description": "A lighting project at  replacing (4) ",
      "measure_application_type": "asdfsdf",
      "requested_quantity_of_equipment": 4,
      "measure_comments": "afdgadfg"
    },
    "time_created": {
      "$date": "2022-06-01T22:49:07.663Z"
    },
    "time_last_modified": {
      "$date": "2022-06-01T22:49:07.663Z"
    }
  }